{
  "$schema": "https://bitbucket.org/maxbublik/stuff/raw/master/breadboard-meta.json-shema.json",
  "templates": {
    "PostgresContainer": {
      "template": "PostgresContainer",
      "file": "postgres.libsonnet",
      "schema": {
        "title": "Postgres container",
        "description": "Postgres StatefulSet + PVC",
        "properties": {
          "dbName": {
            "title": "Database name",
            "type": "string"
          },
          "dbPassword": {
            "title": "Database password",
            "type": "string"
          },
          "dbUser": {
            "title": "Database user",
            "type": "string"
          }
        },
        "required": [
          "dbName",
          "dbUser",
          "dbPassword"
        ],
        "type": "object"
      }
    },
    "StatelessPostgresContainer": {
      "template": "StatelessPostgresContainer",
      "file": "postgres.libsonnet",
      "schema": {
        "title": "Stateless Postgres container",
        "description": "Postgres Pod w/o volume",
        "properties": {
          "dbName": {
            "title": "Database name",
            "type": "string"
          },
          "dbPassword": {
            "title": "Database password",
            "type": "string"
          },
          "dbUser": {
            "title": "Database user",
            "type": "string"
          }
        },
        "required": [
          "dbName",
          "dbUser",
          "dbPassword"
        ],
        "type": "object"
      }
    }
  }
}
